%YAML 1.1
%TAG !u! tag:unity3d.com,2011:
--- !u!1 &2948922250179318806
GameObject:
  m_ObjectHideFlags: 0
  m_CorrespondingSourceObject: {fileID: 0}
  m_PrefabInstance: {fileID: 0}
  m_PrefabAsset: {fileID: 0}
  serializedVersion: 6
  m_Component:
  - component: {fileID: 3670309179729070124}
  - component: {fileID: 8418142306451593979}
  - component: {fileID: 6551364314791601787}
  m_Layer: 0
  m_Name: Layer1
  m_TagString: Untagged
  m_Icon: {fileID: 0}
  m_NavMeshLayer: 0
  m_StaticEditorFlags: 0
  m_IsActive: 1
--- !u!4 &3670309179729070124
Transform:
  m_ObjectHideFlags: 0
  m_CorrespondingSourceObject: {fileID: 0}
  m_PrefabInstance: {fileID: 0}
  m_PrefabAsset: {fileID: 0}
  m_GameObject: {fileID: 2948922250179318806}
  m_LocalRotation: {x: -0, y: -0, z: -0, w: 1}
  m_LocalPosition: {x: 0, y: 0, z: 0}
  m_LocalScale: {x: 1, y: 1, z: 1}
  m_ConstrainProportionsScale: 0
  m_Children: []
  m_Father: {fileID: 685125492739192701}
  m_RootOrder: 0
  m_LocalEulerAnglesHint: {x: 0, y: 0, z: 0}
--- !u!1839735485 &8418142306451593979
Tilemap:
  m_ObjectHideFlags: 0
  m_CorrespondingSourceObject: {fileID: 0}
  m_PrefabInstance: {fileID: 0}
  m_PrefabAsset: {fileID: 0}
  m_GameObject: {fileID: 2948922250179318806}
  m_Enabled: 1
  m_Tiles:
  - first: {x: -2, y: -6, z: 0}
    second:
      serializedVersion: 2
      m_TileIndex: 17
      m_TileSpriteIndex: 17
      m_TileMatrixIndex: 0
      m_TileColorIndex: 0
      m_TileObjectToInstantiateIndex: 65535
      dummyAlignment: 0
      m_AllTileFlags: 1073741825
  - first: {x: -1, y: -6, z: 0}
    second:
      serializedVersion: 2
      m_TileIndex: 18
      m_TileSpriteIndex: 18
      m_TileMatrixIndex: 0
      m_TileColorIndex: 0
      m_TileObjectToInstantiateIndex: 65535
      dummyAlignment: 0
      m_AllTileFlags: 1073741825
  - first: {x: 0, y: -6, z: 0}
    second:
      serializedVersion: 2
      m_TileIndex: 19
      m_TileSpriteIndex: 19
      m_TileMatrixIndex: 0
      m_TileColorIndex: 0
      m_TileObjectToInstantiateIndex: 65535
      dummyAlignment: 0
      m_AllTileFlags: 1073741825
  - first: {x: -2, y: -5, z: 0}
    second:
      serializedVersion: 2
      m_TileIndex: 22
      m_TileSpriteIndex: 22
      m_TileMatrixIndex: 0
      m_TileColorIndex: 0
      m_TileObjectToInstantiateIndex: 65535
      dummyAlignment: 0
      m_AllTileFlags: 1073741825
  - first: {x: -1, y: -5, z: 0}
    second:
      serializedVersion: 2
      m_TileIndex: 20
      m_TileSpriteIndex: 20
      m_TileMatrixIndex: 0
      m_TileColorIndex: 0
      m_TileObjectToInstantiateIndex: 65535
      dummyAlignment: 0
      m_AllTileFlags: 1073741825
  - first: {x: 0, y: -5, z: 0}
    second:
      serializedVersion: 2
      m_TileIndex: 21
      m_TileSpriteIndex: 21
      m_TileMatrixIndex: 0
      m_TileColorIndex: 0
      m_TileObjectToInstantiateIndex: 65535
      dummyAlignment: 0
      m_AllTileFlags: 1073741825
  - first: {x: 0, y: -3, z: 0}
    second:
      serializedVersion: 2
      m_TileIndex: 15
      m_TileSpriteIndex: 15
      m_TileMatrixIndex: 0
      m_TileColorIndex: 0
      m_TileObjectToInstantiateIndex: 65535
      dummyAlignment: 0
      m_AllTileFlags: 1073741825
  - first: {x: -2, y: -2, z: 0}
    second:
      serializedVersion: 2
      m_TileIndex: 13
      m_TileSpriteIndex: 13
      m_TileMatrixIndex: 0
      m_TileColorIndex: 0
      m_TileObjectToInstantiateIndex: 65535
      dummyAlignment: 0
      m_AllTileFlags: 1073741825
  - first: {x: -1, y: -2, z: 0}
    second:
      serializedVersion: 2
      m_TileIndex: 2
      m_TileSpriteIndex: 2
      m_TileMatrixIndex: 0
      m_TileColorIndex: 0
      m_TileObjectToInstantiateIndex: 65535
      dummyAlignment: 0
      m_AllTileFlags: 1073741825
  - first: {x: 0, y: -2, z: 0}
    second:
      serializedVersion: 2
      m_TileIndex: 7
      m_TileSpriteIndex: 7
      m_TileMatrixIndex: 0
      m_TileColorIndex: 0
      m_TileObjectToInstantiateIndex: 65535
      dummyAlignment: 0
      m_AllTileFlags: 1073741825
  - first: {x: 1, y: -2, z: 0}
    second:
      serializedVersion: 2
      m_TileIndex: 9
      m_TileSpriteIndex: 9
      m_TileMatrixIndex: 0
      m_TileColorIndex: 0
      m_TileObjectToInstantiateIndex: 65535
      dummyAlignment: 0
      m_AllTileFlags: 1073741825
  - first: {x: -1, y: -1, z: 0}
    second:
      serializedVersion: 2
      m_TileIndex: 0
      m_TileSpriteIndex: 0
      m_TileMatrixIndex: 0
      m_TileColorIndex: 0
      m_TileObjectToInstantiateIndex: 65535
      dummyAlignment: 0
      m_AllTileFlags: 1073741825
  - first: {x: 0, y: -1, z: 0}
    second:
      serializedVersion: 2
      m_TileIndex: 3
      m_TileSpriteIndex: 3
      m_TileMatrixIndex: 0
      m_TileColorIndex: 0
      m_TileObjectToInstantiateIndex: 65535
      dummyAlignment: 0
      m_AllTileFlags: 1073741825
  - first: {x: 1, y: -1, z: 0}
    second:
      serializedVersion: 2
      m_TileIndex: 10
      m_TileSpriteIndex: 10
      m_TileMatrixIndex: 0
      m_TileColorIndex: 0
      m_TileObjectToInstantiateIndex: 65535
      dummyAlignment: 0
      m_AllTileFlags: 1073741825
  - first: {x: -3, y: 0, z: 0}
    second:
      serializedVersion: 2
      m_TileIndex: 12
      m_TileSpriteIndex: 12
      m_TileMatrixIndex: 0
      m_TileColorIndex: 0
      m_TileObjectToInstantiateIndex: 65535
      dummyAlignment: 0
      m_AllTileFlags: 1073741825
  - first: {x: -2, y: 0, z: 0}
    second:
      serializedVersion: 2
      m_TileIndex: 14
      m_TileSpriteIndex: 14
      m_TileMatrixIndex: 0
      m_TileColorIndex: 0
      m_TileObjectToInstantiateIndex: 65535
      dummyAlignment: 0
      m_AllTileFlags: 1073741825
  - first: {x: -1, y: 0, z: 0}
    second:
      serializedVersion: 2
      m_TileIndex: 1
      m_TileSpriteIndex: 1
      m_TileMatrixIndex: 0
      m_TileColorIndex: 0
      m_TileObjectToInstantiateIndex: 65535
      dummyAlignment: 0
      m_AllTileFlags: 1073741825
  - first: {x: 0, y: 0, z: 0}
    second:
      serializedVersion: 2
      m_TileIndex: 5
      m_TileSpriteIndex: 5
      m_TileMatrixIndex: 0
      m_TileColorIndex: 0
      m_TileObjectToInstantiateIndex: 65535
      dummyAlignment: 0
      m_AllTileFlags: 1073741825
  - first: {x: 1, y: 0, z: 0}
    second:
      serializedVersion: 2
      m_TileIndex: 8
      m_TileSpriteIndex: 8
      m_TileMatrixIndex: 0
      m_TileColorIndex: 0
      m_TileObjectToInstantiateIndex: 65535
      dummyAlignment: 0
      m_AllTileFlags: 1073741825
  - first: {x: -2, y: 1, z: 0}
    second:
      serializedVersion: 2
      m_TileIndex: 4
      m_TileSpriteIndex: 4
      m_TileMatrixIndex: 0
      m_TileColorIndex: 0
      m_TileObjectToInstantiateIndex: 65535
      dummyAlignment: 0
      m_AllTileFlags: 1073741825
  - first: {x: -1, y: 1, z: 0}
    second:
      serializedVersion: 2
      m_TileIndex: 6
      m_TileSpriteIndex: 6
      m_TileMatrixIndex: 0
      m_TileColorIndex: 0
      m_TileObjectToInstantiateIndex: 65535
      dummyAlignment: 0
      m_AllTileFlags: 1073741825
  - first: {x: 0, y: 1, z: 0}
    second:
      serializedVersion: 2
      m_TileIndex: 11
      m_TileSpriteIndex: 11
      m_TileMatrixIndex: 0
      m_TileColorIndex: 0
      m_TileObjectToInstantiateIndex: 65535
      dummyAlignment: 0
      m_AllTileFlags: 1073741825
  - first: {x: 1, y: 1, z: 0}
    second:
      serializedVersion: 2
      m_TileIndex: 16
      m_TileSpriteIndex: 16
      m_TileMatrixIndex: 0
      m_TileColorIndex: 0
      m_TileObjectToInstantiateIndex: 65535
      dummyAlignment: 0
      m_AllTileFlags: 1073741825
  m_AnimatedTiles: {}
  m_TileAssetArray:
  - m_RefCount: 1
    m_Data: {fileID: 11400000, guid: f184880526292d040b3c7fed6298a58b, type: 2}
  - m_RefCount: 1
    m_Data: {fileID: 11400000, guid: 8470c1e699e9b344daa652d24fa1d563, type: 2}
  - m_RefCount: 1
    m_Data: {fileID: 11400000, guid: 302954b17d7f0814ebdf28b9364b98fe, type: 2}
  - m_RefCount: 1
    m_Data: {fileID: 11400000, guid: ea8ebd0338d45544a82a54aa4c050ec1, type: 2}
  - m_RefCount: 1
    m_Data: {fileID: 11400000, guid: 9d3d075ce7ec06e4194691f05f9c6012, type: 2}
  - m_RefCount: 1
    m_Data: {fileID: 11400000, guid: 7283ef03efefe7648987ac2614a0d7f4, type: 2}
  - m_RefCount: 1
    m_Data: {fileID: 11400000, guid: 34ee31f3671c224469455d74c820a229, type: 2}
  - m_RefCount: 1
    m_Data: {fileID: 11400000, guid: 5a9ea34315a3c3c489acf048b9ea6c6f, type: 2}
  - m_RefCount: 1
    m_Data: {fileID: 11400000, guid: ac716d5e7199c5e4c8e7cd1a5d8d344f, type: 2}
  - m_RefCount: 1
    m_Data: {fileID: 11400000, guid: c16552e2b0c0c584598661472ab75207, type: 2}
  - m_RefCount: 1
    m_Data: {fileID: 11400000, guid: 8736324ec140729408b895ddf4e83551, type: 2}
  - m_RefCount: 1
    m_Data: {fileID: 11400000, guid: 1142de385ce78af499dc3d4f16c1ef06, type: 2}
  - m_RefCount: 1
    m_Data: {fileID: 11400000, guid: fa89e660ce3278544a64fe8fc383a87d, type: 2}
  - m_RefCount: 1
    m_Data: {fileID: 11400000, guid: b4f0fdc7f1c423f4d8fc47dce7d32398, type: 2}
  - m_RefCount: 1
    m_Data: {fileID: 11400000, guid: 4a258418bfe389747aee4ff01a880146, type: 2}
  - m_RefCount: 1
    m_Data: {fileID: 11400000, guid: 3c1673d5a48308149a441563307ad6d6, type: 2}
  - m_RefCount: 1
    m_Data: {fileID: 11400000, guid: 9dcc6e11a94c36d4cb10a7165bd0e03f, type: 2}
  - m_RefCount: 1
    m_Data: {fileID: 11400000, guid: 7618f2f3a62a2534eb72e84fee1bc430, type: 2}
  - m_RefCount: 1
    m_Data: {fileID: 11400000, guid: 2ada36927430e424ab0d9354c4311aef, type: 2}
  - m_RefCount: 1
    m_Data: {fileID: 11400000, guid: 316b4eb43462c1646af82d29a11ca40a, type: 2}
  - m_RefCount: 1
    m_Data: {fileID: 11400000, guid: 25e17c4fafd58ce45965af5b8a336e8f, type: 2}
  - m_RefCount: 1
    m_Data: {fileID: 11400000, guid: 11778cb3fbc109b4f89c726886bc89f6, type: 2}
  - m_RefCount: 1
    m_Data: {fileID: 11400000, guid: e2aa552296df4f345b10d3f26dc38ffa, type: 2}
  m_TileSpriteArray:
  - m_RefCount: 1
    m_Data: {fileID: -1717452862, guid: d2df865139bb35f408d99d07581514db, type: 3}
  - m_RefCount: 1
    m_Data: {fileID: -2026659384, guid: d2df865139bb35f408d99d07581514db, type: 3}
  - m_RefCount: 1
    m_Data: {fileID: 1633244233, guid: d2df865139bb35f408d99d07581514db, type: 3}
  - m_RefCount: 1
    m_Data: {fileID: -1794457938, guid: d2df865139bb35f408d99d07581514db, type: 3}
  - m_RefCount: 1
    m_Data: {fileID: -2114407115, guid: d2df865139bb35f408d99d07581514db, type: 3}
  - m_RefCount: 1
    m_Data: {fileID: 354087154, guid: d2df865139bb35f408d99d07581514db, type: 3}
  - m_RefCount: 1
    m_Data: {fileID: -1461483815, guid: d2df865139bb35f408d99d07581514db, type: 3}
  - m_RefCount: 1
    m_Data: {fileID: -1084229172, guid: d2df865139bb35f408d99d07581514db, type: 3}
  - m_RefCount: 1
    m_Data: {fileID: -101900378, guid: d2df865139bb35f408d99d07581514db, type: 3}
  - m_RefCount: 1
    m_Data: {fileID: 709303318, guid: d2df865139bb35f408d99d07581514db, type: 3}
  - m_RefCount: 1
    m_Data: {fileID: 1166330369, guid: d2df865139bb35f408d99d07581514db, type: 3}
  - m_RefCount: 1
    m_Data: {fileID: 1367352370, guid: d2df865139bb35f408d99d07581514db, type: 3}
  - m_RefCount: 1
    m_Data: {fileID: -1166323674, guid: d2df865139bb35f408d99d07581514db, type: 3}
  - m_RefCount: 1
    m_Data: {fileID: 1120415028, guid: d2df865139bb35f408d99d07581514db, type: 3}
  - m_RefCount: 1
    m_Data: {fileID: -474203019, guid: d2df865139bb35f408d99d07581514db, type: 3}
  - m_RefCount: 1
    m_Data: {fileID: 929039026, guid: d2df865139bb35f408d99d07581514db, type: 3}
  - m_RefCount: 1
    m_Data: {fileID: 1435081349, guid: d2df865139bb35f408d99d07581514db, type: 3}
  - m_RefCount: 1
    m_Data: {fileID: -1875003660, guid: d2df865139bb35f408d99d07581514db, type: 3}
  - m_RefCount: 1
    m_Data: {fileID: 1830133962, guid: d2df865139bb35f408d99d07581514db, type: 3}
  - m_RefCount: 1
    m_Data: {fileID: -340525544, guid: d2df865139bb35f408d99d07581514db, type: 3}
  - m_RefCount: 1
    m_Data: {fileID: 1397778529, guid: d2df865139bb35f408d99d07581514db, type: 3}
  - m_RefCount: 1
    m_Data: {fileID: -1696720600, guid: d2df865139bb35f408d99d07581514db, type: 3}
  - m_RefCount: 1
    m_Data: {fileID: -231362321, guid: d2df865139bb35f408d99d07581514db, type: 3}
  m_TileMatrixArray:
  - m_RefCount: 23
    m_Data:
      e00: 1
      e01: 0
      e02: 0
      e03: 0
      e10: 0
      e11: 1
      e12: 0
      e13: 0
      e20: 0
      e21: 0
      e22: 1
      e23: 0
      e30: 0
      e31: 0
      e32: 0
      e33: 1
  m_TileColorArray:
  - m_RefCount: 23
    m_Data: {r: 1, g: 1, b: 1, a: 1}
  m_TileObjectToInstantiateArray: []
  m_AnimationFrameRate: 1
  m_Color: {r: 1, g: 1, b: 1, a: 1}
  m_Origin: {x: -3, y: -6, z: 0}
  m_Size: {x: 5, y: 8, z: 1}
  m_TileAnchor: {x: 0.5, y: 0.5, z: 0}
  m_TileOrientation: 0
  m_TileOrientationMatrix:
    e00: 1
    e01: 0
    e02: 0
    e03: 0
    e10: 0
    e11: 1
    e12: 0
    e13: 0
    e20: 0
    e21: 0
    e22: 1
    e23: 0
    e30: 0
    e31: 0
    e32: 0
    e33: 1
--- !u!483693784 &6551364314791601787
TilemapRenderer:
  m_ObjectHideFlags: 0
  m_CorrespondingSourceObject: {fileID: 0}
  m_PrefabInstance: {fileID: 0}
  m_PrefabAsset: {fileID: 0}
  m_GameObject: {fileID: 2948922250179318806}
  m_Enabled: 1
  m_CastShadows: 0
  m_ReceiveShadows: 0
  m_DynamicOccludee: 0
  m_StaticShadowCaster: 0
  m_MotionVectors: 1
  m_LightProbeUsage: 0
  m_ReflectionProbeUsage: 0
  m_RayTracingMode: 0
  m_RayTraceProcedural: 0
  m_RenderingLayerMask: 1
  m_RendererPriority: 0
  m_Materials:
  - {fileID: 2100000, guid: a97c105638bdf8b4a8650670310a4cd3, type: 2}
  m_StaticBatchInfo:
    firstSubMesh: 0
    subMeshCount: 0
  m_StaticBatchRoot: {fileID: 0}
  m_ProbeAnchor: {fileID: 0}
  m_LightProbeVolumeOverride: {fileID: 0}
  m_ScaleInLightmap: 1
  m_ReceiveGI: 1
  m_PreserveUVs: 0
  m_IgnoreNormalsForChartDetection: 0
  m_ImportantGI: 0
  m_StitchLightmapSeams: 1
  m_SelectedEditorRenderState: 0
  m_MinimumChartSize: 4
  m_AutoUVMaxDistance: 0.5
  m_AutoUVMaxAngle: 89
  m_LightmapParameters: {fileID: 0}
  m_SortingLayerID: 0
  m_SortingLayer: 0
  m_SortingOrder: 0
  m_ChunkSize: {x: 32, y: 32, z: 32}
  m_ChunkCullingBounds: {x: 0, y: 0, z: 0}
  m_MaxChunkCount: 16
  m_MaxFrameAge: 16
  m_SortOrder: 0
  m_Mode: 0
  m_DetectChunkCullingBounds: 0
  m_MaskInteraction: 0
--- !u!1 &4626337430122211946
GameObject:
  m_ObjectHideFlags: 0
  m_CorrespondingSourceObject: {fileID: 0}
  m_PrefabInstance: {fileID: 0}
  m_PrefabAsset: {fileID: 0}
  serializedVersion: 6
  m_Component:
  - component: {fileID: 685125492739192701}
  - component: {fileID: 1582984139928723230}
  m_Layer: 0
  m_Name: Suelo
  m_TagString: Untagged
  m_Icon: {fileID: 0}
  m_NavMeshLayer: 0
  m_StaticEditorFlags: 0
  m_IsActive: 1
--- !u!4 &685125492739192701
Transform:
  m_ObjectHideFlags: 0
  m_CorrespondingSourceObject: {fileID: 0}
  m_PrefabInstance: {fileID: 0}
  m_PrefabAsset: {fileID: 0}
  m_GameObject: {fileID: 4626337430122211946}
  m_LocalRotation: {x: 0, y: 0, z: 0, w: 1}
  m_LocalPosition: {x: 0, y: 0, z: 0}
  m_LocalScale: {x: 1, y: 1, z: 1}
  m_ConstrainProportionsScale: 0
  m_Children:
  - {fileID: 3670309179729070124}
  m_Father: {fileID: 0}
  m_RootOrder: 0
  m_LocalEulerAnglesHint: {x: 0, y: 0, z: 0}
--- !u!156049354 &1582984139928723230
Grid:
  m_ObjectHideFlags: 0
  m_CorrespondingSourceObject: {fileID: 0}
  m_PrefabInstance: {fileID: 0}
  m_PrefabAsset: {fileID: 0}
  m_GameObject: {fileID: 4626337430122211946}
  m_Enabled: 1
  m_CellSize: {x: 1, y: 1, z: 0}
  m_CellGap: {x: 0, y: 0, z: 0}
  m_CellLayout: 0
  m_CellSwizzle: 0
--- !u!114 &7500164418645640751
MonoBehaviour:
  m_ObjectHideFlags: 0
  m_CorrespondingSourceObject: {fileID: 0}
  m_PrefabInstance: {fileID: 0}
  m_PrefabAsset: {fileID: 0}
  m_GameObject: {fileID: 0}
  m_Enabled: 1
  m_EditorHideFlags: 0
  m_Script: {fileID: 12395, guid: 0000000000000000e000000000000000, type: 0}
  m_Name: Palette Settings
  m_EditorClassIdentifier: 
  cellSizing: 0
  m_TransparencySortMode: 0
  m_TransparencySortAxis: {x: 0, y: 0, z: 1}
