%YAML 1.1
%TAG !u! tag:unity3d.com,2011:
--- !u!114 &11400000
MonoBehaviour:
  m_ObjectHideFlags: 0
  m_CorrespondingSourceObject: {fileID: 0}
  m_PrefabInstance: {fileID: 0}
  m_PrefabAsset: {fileID: 0}
  m_GameObject: {fileID: 0}
  m_Enabled: 1
  m_EditorHideFlags: 0
  m_Script: {fileID: 11500000, guid: e84cf1d3b29f5644fb69355e89a94625, type: 3}
  m_Name: PlayerRedCards
  m_EditorClassIdentifier: 
  bolaDisparo: 0
  bolaInmunidad: 0
  bolaCura: 0
